%YAML 1.1
%TAG !u! tag:unity3d.com,2011:
--- !u!114 &11400000
MonoBehaviour:
  m_ObjectHideFlags: 0
  m_CorrespondingSourceObject: {fileID: 0}
  m_PrefabInstance: {fileID: 0}
  m_PrefabAsset: {fileID: 0}
  m_GameObject: {fileID: 0}
  m_Enabled: 1
  m_EditorHideFlags: 0
  m_Script: {fileID: 11500000, guid: 0c000f3249e5a47b3ac89cc87fce729d, type: 3}
  m_Name: Metal
  m_EditorClassIdentifier: 
  Sparks: {fileID: 4634076014561680, guid: 00fedc70b62a31e448e8ccc298257b56, type: 3}
  Hit: {fileID: 4689278729519210, guid: 9b42bb959c8e3704d9c06c8611ee10d6, type: 3}
  HitAudio: {fileID: 8300000, guid: 1b26a1515f8bc4a91ae64359187cd8c2, type: 3}
  ShellDropSounds: []
  footstepsSounds:
  - FootstepsAudios: []
  - FootstepsAudios: []
  currentTag: 0
  tagsCount: 3
  inspectorTab: 1
  inputs: {fileID: 11400000, guid: c647da03305eb437887679be51a2d70c, type: 2}
