%YAML 1.1
%TAG !u! tag:unity3d.com,2011:
--- !u!1045 &1
EditorBuildSettings:
  m_ObjectHideFlags: 0
  serializedVersion: 2
  m_Scenes:
  - enabled: 1
    path: Assets/Game/Scenes/Level1.unity
    guid: ae70c1c8f72fee749930ba68fdb6e419
  m_configObjects: {}
