%YAML 1.1
%TAG !u! tag:unity3d.com,2011:
--- !u!114 &11400000
MonoBehaviour:
  m_ObjectHideFlags: 0
  m_CorrespondingSourceObject: {fileID: 0}
  m_PrefabInstance: {fileID: 0}
  m_PrefabAsset: {fileID: 0}
  m_GameObject: {fileID: 0}
  m_Enabled: 1
  m_EditorHideFlags: 0
  m_Script: {fileID: 11500000, guid: bf452c0e3effe4c1dbadd81d519b55fd, type: 3}
  m_Name: Flamethrower
  m_EditorClassIdentifier: 
  Attacks:
  - AttackType: 3
    BulletsSettings:
    - Active: 1
      weapon_damage: 0
      RateOfShoot: 0.5
      ScatterOfBullets: 0
    - Active: 1
      weapon_damage: 0
      RateOfShoot: 0.5
      ScatterOfBullets: 0
    WeaponAttack: {fileID: 7400000, guid: 318694420d1084da698d41741fdf6c55, type: 3}
    WeaponAutoShoot: {fileID: 0}
    WeaponReload: {fileID: 7400000, guid: 73e8c1720786945aea3d6904efe20fd6, type: 3}
    weapon_damage: 3
    RateOfShoot: 0.5
    ScatterOfBullets: 0
    currentBulletType: 0
    curAmmo: 12
    maxAmmo: 1000
    inventoryAmmo: 10000
    Rocket: {fileID: 0}
    Fire: {fileID: 1236665128587416, guid: b0e58bfb741ef4d82b018700ca38a8d4, type: 3}
    Tracer: {fileID: 0}
    MuzzleFlash: {fileID: 0}
    Shell: {fileID: 0}
    AttackSpawnPoint: {fileID: 0}
    ShellPoint: {fileID: 0}
    AttackCollider: {fileID: 0}
    AttackAudio: {fileID: 8300000, guid: 70e3a967e195a437989de10f381c5085, type: 3}
    ReloadAudio: {fileID: 8300000, guid: 2639cc355135c423f81b2156259d5273, type: 3}
    NoAmmoShotAudio: {fileID: 0}
    AmmoType: fire
  GrenadeParameters:
    GrenadeSpeed: 20
    GrenadeExplosionTime: 3
    ExplodeWhenTouchGround: 0
    GrenadeExplosion: {fileID: 0}
    ThrowAudio: {fileID: 0}
    GrenadeThrow_FPS: {fileID: 0}
    GrenadeThrow_TPS_TDS: {fileID: 0}
  characterAnimations:
    WeaponIdle: {fileID: 7400000, guid: e4903411985de48f7ae4e2324eab4b2b, type: 3}
    TakeWeapon: {fileID: 7400000, guid: 1d75c13b689464e14a03fd8699ba5977, type: 3}
    WeaponWalk: {fileID: 7400000, guid: b986beaa7e0de4dc28a64fc5bde6ecc2, type: 3}
    WeaponRun: {fileID: 7400000, guid: 076dfc33e83634627b683d036073a56c, type: 3}
    RemoveWeapon: {fileID: 0}
    anim: {fileID: 0}
  attacksNames:
  - flame
  WeaponImage: {fileID: 2800000, guid: e694a939a8fb545fba58c89303320b14, type: 3}
  AimImage: {fileID: 0}
  PickUpWeaponAudio: {fileID: 0}
  DropWeaponAudio: {fileID: 0}
  ActiveAim: 1
  inspectorTab: 0
  currentAttack: 0
  bulletTypeInspectorTab: 0
