{
    "name": "GameInputControl",
    "maps": [
        {
            "name": "Character",
            "id": "795399eb-bd62-4837-9d82-6508e4869602",
            "actions": [
                {
                    "name": "Move",
                    "type": "PassThrough",
                    "id": "ecbe932c-6371-409c-a9b1-18d3a5eb6c49",
                    "expectedControlType": "Vector2",
                    "processors": "InvertVector2(invertX=false,invertY=false)",
                    "interactions": "",
                    "initialStateCheck": false
                },
                {
                    "name": "Look",
                    "type": "PassThrough",
                    "id": "d4a052fc-db73-4b55-99f4-364cab301fd3",
                    "expectedControlType": "Vector2",
                    "processors": "",
                    "interactions": "",
                    "initialStateCheck": false
                }
            ],
            "bindings": [
                {
                    "name": "",
                    "id": "1cabd9d4-1bb2-4a72-920f-12994f40cdb4",
                    "path": "<Gamepad>/leftStick",
                    "interactions": "",
                    "processors": "",
                    "groups": "",
                    "action": "Move",
                    "isComposite": false,
                    "isPartOfComposite": false
                },
                {
                    "name": "",
                    "id": "31549a56-e2ab-4c9f-9755-861e871f5d54",
                    "path": "<Gamepad>/rightStick",
                    "interactions": "",
                    "processors": "",
                    "groups": "",
                    "action": "Look",
                    "isComposite": false,
                    "isPartOfComposite": false
                }
            ]
        }
    ],
    "controlSchemes": [
        {
            "name": "General",
            "bindingGroup": "General",
            "devices": [
                {
                    "devicePath": "<Gamepad>",
                    "isOptional": true,
                    "isOR": false
                },
                {
                    "devicePath": "<AndroidGamepad>",
                    "isOptional": true,
                    "isOR": false
                }
            ]
        }
    ]
}